{
  "main.css": "/static/css/main.8b448b77.chunk.css",
  "main.js": "/static/js/main.38935bf3.chunk.js",
  "main.js.map": "/static/js/main.38935bf3.chunk.js.map",
  "static/js/1.80abb22a.chunk.js": "/static/js/1.80abb22a.chunk.js",
  "static/js/1.80abb22a.chunk.js.map": "/static/js/1.80abb22a.chunk.js.map",
  "runtime~main.js": "/static/js/runtime~main.229c360f.js",
  "runtime~main.js.map": "/static/js/runtime~main.229c360f.js.map",
  "static/media/skii.jpg": "/static/media/skii.5562da2b.jpg",
  "static/media/app.scss": "/static/media/texgyreadventor-regular-webfont.bcb591e9.svg",
  "static/media/canyon.jpg": "/static/media/canyon.131a76db.jpg",
  "static/media/woods.jpg": "/static/media/woods.1565b9f8.jpg",
  "static/media/volcano.jpg": "/static/media/volcano.3c7b0f72.jpg",
  "static/media/herons.jpg": "/static/media/herons.c6d38fc4.jpg",
  "static/media/user.jpg": "/static/media/user.ab43799a.jpg",
  "static/media/birds.jpeg": "/static/media/birds.e01eff02.jpeg",
  "static/media/girl.jpg": "/static/media/girl.5745dc97.jpg",
  "static/media/snek.jpg": "/static/media/snek.4812e1ca.jpg",
  "static/media/beachcity.jpg": "/static/media/beachcity.41bb9693.jpg",
  "static/media/offers-slide-1.jpg": "/static/media/offers-slide-1.9edb4a92.jpg",
  "static/media/offers-slide-2.jpg": "/static/media/offers-slide-2.38441789.jpg",
  "static/media/cat-men.jpg": "/static/media/cat-men.b30bb1ef.jpg",
  "static/media/cat-women.jpg": "/static/media/cat-women.a1f539ac.jpg",
  "static/media/cat-kids.jpg": "/static/media/cat-kids.de962944.jpg",
  "static/media/pup.jpg": "/static/media/pup.55ffc49b.jpg",
  "static/media/penguins.jpg": "/static/media/penguins.0a042064.jpg",
  "static/media/whale.jpg": "/static/media/whale.645c9f5d.jpg",
  "static/media/mantis.jpg": "/static/media/mantis.56e89a67.jpg",
  "static/media/squid.jpg": "/static/media/squid.ce083e47.jpg",
  "static/media/fox.jpg": "/static/media/fox.51fa4ec2.jpg",
  "static/media/goldengate.jpg": "/static/media/goldengate.dce4f1ef.jpg",
  "static/media/rope.jpg": "/static/media/rope.6ba09aa9.jpg",
  "static/media/holi.jpg": "/static/media/holi.61d4f996.jpg",
  "static/media/china.jpg": "/static/media/china.11df4251.jpg",
  "static/media/bigwall.jpg": "/static/media/bigwall.2b34eba4.jpg",
  "static/media/yaks.jpg": "/static/media/yaks.f364b560.jpg",
  "static/media/bearboy.jpg": "/static/media/bearboy.56a8819d.jpg",
  "static/media/beach.jpg": "/static/media/beach.cd60cc05.jpg",
  "static/media/chameleon.jpg": "/static/media/chameleon.a85742c3.jpg",
  "static/media/deer.jpg": "/static/media/deer.8ed96064.jpg",
  "static/media/baech-city.jpg": "/static/media/baech-city.f2de2bbf.jpg",
  "static/media/snoww.jpg": "/static/media/snoww.3a20ac9f.jpg",
  "static/media/volcano water.jpg": "/static/media/volcano water.bd32075b.jpg",
  "static/media/styles.module.css": "/static/media/ratings.f4c0a6a7.png",
  "static/media/shoe1.jpg": "/static/media/shoe1.532ea48f.jpg",
  "static/media/shoer.jpg": "/static/media/shoer.fffb5ebe.jpg",
  "static/media/shoe2.jpg": "/static/media/shoe2.5675361f.jpg",
  "static/media/shoe3.jpg": "/static/media/shoe3.94717007.jpg",
  "static/media/shoe4.jpg": "/static/media/shoe4.8744e84e.jpg",
  "static/media/shoe5.jpg": "/static/media/shoe5.4dc4c437.jpg",
  "static/media/shoe1nav.jpg": "/static/media/shoe1nav.47a8b81b.jpg",
  "static/media/shoernav.jpg": "/static/media/shoernav.60048d89.jpg",
  "static/media/shoe2nav.jpg": "/static/media/shoe2nav.499366e3.jpg",
  "static/media/shoe3nav.jpg": "/static/media/shoe3nav.c4d0a19c.jpg",
  "static/media/shoe4nav.jpg": "/static/media/shoe4nav.554ed43b.jpg",
  "static/media/shoe5nav.jpg": "/static/media/shoe5nav.c0804adf.jpg",
  "static/css/main.8b448b77.chunk.css.map": "/static/css/main.8b448b77.chunk.css.map",
  "index.html": "/index.html",
  "precache-manifest.0762949b631d2ac74e99b990085239df.js": "/precache-manifest.0762949b631d2ac74e99b990085239df.js",
  "service-worker.js": "/service-worker.js"
}